^E:\PROJECTS\AI\CAR2014\HWO2014-TEAM-1070\CPPPROJECT\CAR2014\CAR2014\SRC\CONNECTION.CPP|E:\PROJECTS\AI\CAR2014\HWO2014-TEAM-1070\CPPPROJECT\CAR2014\CAR2014\SRC\GAME_LOGIC.CPP|E:\PROJECTS\AI\CAR2014\HWO2014-TEAM-1070\CPPPROJECT\CAR2014\CAR2014\SRC\MAIN.CPP|E:\PROJECTS\AI\CAR2014\HWO2014-TEAM-1070\CPPPROJECT\CAR2014\CAR2014\SRC\PROTOCOL.CPP
E:\PROJECTS\AI\CAR2014\HWO2014-TEAM-1070\CPPPROJECT\CAR2014\CAR2014\DEBUG\CONNECTION.OBJ
E:\PROJECTS\AI\CAR2014\HWO2014-TEAM-1070\CPPPROJECT\CAR2014\CAR2014\DEBUG\GAME_LOGIC.OBJ
E:\PROJECTS\AI\CAR2014\HWO2014-TEAM-1070\CPPPROJECT\CAR2014\CAR2014\DEBUG\MAIN.OBJ
E:\PROJECTS\AI\CAR2014\HWO2014-TEAM-1070\CPPPROJECT\CAR2014\CAR2014\DEBUG\PROTOCOL.OBJ
^E:\PROJECTS\AI\CAR2014\HWO2014-TEAM-1070\CPPPROJECT\CAR2014\CAR2014\SRC\CONNECTION.CPP
E:\PROJECTS\AI\CAR2014\HWO2014-TEAM-1070\CPPPROJECT\CAR2014\CAR2014\DEBUG\VC110.PDB
E:\PROJECTS\AI\CAR2014\HWO2014-TEAM-1070\CPPPROJECT\CAR2014\CAR2014\DEBUG\CONNECTION.OBJ
^E:\PROJECTS\AI\CAR2014\HWO2014-TEAM-1070\CPPPROJECT\CAR2014\CAR2014\SRC\GAME_LOGIC.CPP
E:\PROJECTS\AI\CAR2014\HWO2014-TEAM-1070\CPPPROJECT\CAR2014\CAR2014\DEBUG\VC110.PDB
E:\PROJECTS\AI\CAR2014\HWO2014-TEAM-1070\CPPPROJECT\CAR2014\CAR2014\DEBUG\GAME_LOGIC.OBJ
^E:\PROJECTS\AI\CAR2014\HWO2014-TEAM-1070\CPPPROJECT\CAR2014\CAR2014\SRC\MAIN.CPP
E:\PROJECTS\AI\CAR2014\HWO2014-TEAM-1070\CPPPROJECT\CAR2014\CAR2014\DEBUG\VC110.PDB
E:\PROJECTS\AI\CAR2014\HWO2014-TEAM-1070\CPPPROJECT\CAR2014\CAR2014\DEBUG\MAIN.OBJ
^E:\PROJECTS\AI\CAR2014\HWO2014-TEAM-1070\CPPPROJECT\CAR2014\CAR2014\SRC\PROTOCOL.CPP
E:\PROJECTS\AI\CAR2014\HWO2014-TEAM-1070\CPPPROJECT\CAR2014\CAR2014\DEBUG\VC110.PDB
^E:\PROJECTS\AI\CAR2014\HWO2014-TEAM-1070\CPPPROJECT\CAR2014\CAR2014\SRC\GAME_LOGIC.CPP|E:\PROJECTS\AI\CAR2014\HWO2014-TEAM-1070\CPPPROJECT\CAR2014\CAR2014\SRC\MAIN.CPP|E:\PROJECTS\AI\CAR2014\HWO2014-TEAM-1070\CPPPROJECT\CAR2014\CAR2014\SRC\PROTOCOL.CPP
E:\PROJECTS\AI\CAR2014\HWO2014-TEAM-1070\CPPPROJECT\CAR2014\CAR2014\DEBUG\GAME_LOGIC.OBJ
E:\PROJECTS\AI\CAR2014\HWO2014-TEAM-1070\CPPPROJECT\CAR2014\CAR2014\DEBUG\PROTOCOL.OBJ
E:\PROJECTS\AI\CAR2014\HWO2014-TEAM-1070\CPPPROJECT\CAR2014\CAR2014\DEBUG\MAIN.OBJ
